^E:\UNIVERSITY\YEAR 2\CMP-5010B GRAPHICS 1\COURSEWORK\VERSION 2.5\DEBUG\ACTIVITY.OBJ|E:\UNIVERSITY\YEAR 2\CMP-5010B GRAPHICS 1\COURSEWORK\VERSION 2.5\DEBUG\BOUNDINGBOX.OBJ|E:\UNIVERSITY\YEAR 2\CMP-5010B GRAPHICS 1\COURSEWORK\VERSION 2.5\DEBUG\BOUNDINGCIRCLE.OBJ|E:\UNIVERSITY\YEAR 2\CMP-5010B GRAPHICS 1\COURSEWORK\VERSION 2.5\DEBUG\BUTTON.OBJ|E:\UNIVERSITY\YEAR 2\CMP-5010B GRAPHICS 1\COURSEWORK\VERSION 2.5\DEBUG\CAMERA.OBJ|E:\UNIVERSITY\YEAR 2\CMP-5010B GRAPHICS 1\COURSEWORK\VERSION 2.5\DEBUG\COLLIDABLEOBJECTS.OBJ|E:\UNIVERSITY\YEAR 2\CMP-5010B GRAPHICS 1\COURSEWORK\VERSION 2.5\DEBUG\CONSOLE.OBJ|E:\UNIVERSITY\YEAR 2\CMP-5010B GRAPHICS 1\COURSEWORK\VERSION 2.5\DEBUG\CONTROLS.OBJ|E:\UNIVERSITY\YEAR 2\CMP-5010B GRAPHICS 1\COURSEWORK\VERSION 2.5\DEBUG\DEATHOBJECTS.OBJ|E:\UNIVERSITY\YEAR 2\CMP-5010B GRAPHICS 1\COURSEWORK\VERSION 2.5\DEBUG\DEATHSCREEN.OBJ|E:\UNIVERSITY\YEAR 2\CMP-5010B GRAPHICS 1\COURSEWORK\VERSION 2.5\DEBUG\ENEMIES.OBJ|E:\UNIVERSITY\YEAR 2\CMP-5010B GRAPHICS 1\COURSEWORK\VERSION 2.5\DEBUG\EXIT.OBJ|E:\UNIVERSITY\YEAR 2\CMP-5010B GRAPHICS 1\COURSEWORK\VERSION 2.5\DEBUG\FOLLOWER.OBJ|E:\UNIVERSITY\YEAR 2\CMP-5010B GRAPHICS 1\COURSEWORK\VERSION 2.5\DEBUG\GAMEOBJECT.OBJ|E:\UNIVERSITY\YEAR 2\CMP-5010B GRAPHICS 1\COURSEWORK\VERSION 2.5\DEBUG\GEM.OBJ|E:\UNIVERSITY\YEAR 2\CMP-5010B GRAPHICS 1\COURSEWORK\VERSION 2.5\DEBUG\HUD.OBJ|E:\UNIVERSITY\YEAR 2\CMP-5010B GRAPHICS 1\COURSEWORK\VERSION 2.5\DEBUG\INPUTS.OBJ|E:\UNIVERSITY\YEAR 2\CMP-5010B GRAPHICS 1\COURSEWORK\VERSION 2.5\DEBUG\LEVELONE.OBJ|E:\UNIVERSITY\YEAR 2\CMP-5010B GRAPHICS 1\COURSEWORK\VERSION 2.5\DEBUG\LEVELSELECT.OBJ|E:\UNIVERSITY\YEAR 2\CMP-5010B GRAPHICS 1\COURSEWORK\VERSION 2.5\DEBUG\LEVELTWO.OBJ|E:\UNIVERSITY\YEAR 2\CMP-5010B GRAPHICS 1\COURSEWORK\VERSION 2.5\DEBUG\LOADPNG.OBJ|E:\UNIVERSITY\YEAR 2\CMP-5010B GRAPHICS 1\COURSEWORK\VERSION 2.5\DEBUG\MAINMENU.OBJ|E:\UNIVERSITY\YEAR 2\CMP-5010B GRAPHICS 1\COURSEWORK\VERSION 2.5\DEBUG\MOVINGPLATFORMS.OBJ|E:\UNIVERSITY\YEAR 2\CMP-5010B GRAPHICS 1\COURSEWORK\VERSION 2.5\DEBUG\OPENGLAPPLICATION.OBJ|E:\UNIVERSITY\YEAR 2\CMP-5010B GRAPHICS 1\COURSEWORK\VERSION 2.5\DEBUG\OUTOFTIME.OBJ|E:\UNIVERSITY\YEAR 2\CMP-5010B GRAPHICS 1\COURSEWORK\VERSION 2.5\DEBUG\PLATFORMS.OBJ|E:\UNIVERSITY\YEAR 2\CMP-5010B GRAPHICS 1\COURSEWORK\VERSION 2.5\DEBUG\PLAYER.OBJ|E:\UNIVERSITY\YEAR 2\CMP-5010B GRAPHICS 1\COURSEWORK\VERSION 2.5\DEBUG\SAW.OBJ|E:\UNIVERSITY\YEAR 2\CMP-5010B GRAPHICS 1\COURSEWORK\VERSION 2.5\DEBUG\SCORESCREEN.OBJ|E:\UNIVERSITY\YEAR 2\CMP-5010B GRAPHICS 1\COURSEWORK\VERSION 2.5\DEBUG\STATICWORLD.OBJ|E:\UNIVERSITY\YEAR 2\CMP-5010B GRAPHICS 1\COURSEWORK\VERSION 2.5\DEBUG\TORCH.OBJ|E:\UNIVERSITY\YEAR 2\CMP-5010B GRAPHICS 1\COURSEWORK\VERSION 2.5\DEBUG\TRAPS.OBJ|E:\UNIVERSITY\YEAR 2\CMP-5010B GRAPHICS 1\COURSEWORK\VERSION 2.5\DEBUG\TRIAL_PLATFORMER.OBJ|E:\UNIVERSITY\YEAR 2\CMP-5010B GRAPHICS 1\COURSEWORK\VERSION 2.5\DEBUG\VEC2.OBJ
C:\PROGRAM FILES (X86)\WINDOWS KITS\8.0\LIB\WIN8\UM\X86\OPENGL32.LIB
C:\PROGRAM FILES (X86)\WINDOWS KITS\8.0\LIB\WIN8\UM\X86\GLU32.LIB
C:\PROGRAM FILES (X86)\WINDOWS KITS\8.0\LIB\WIN8\UM\X86\KERNEL32.LIB
C:\PROGRAM FILES (X86)\WINDOWS KITS\8.0\LIB\WIN8\UM\X86\USER32.LIB
C:\PROGRAM FILES (X86)\WINDOWS KITS\8.0\LIB\WIN8\UM\X86\GDI32.LIB
C:\PROGRAM FILES (X86)\WINDOWS KITS\8.0\LIB\WIN8\UM\X86\WINSPOOL.LIB
C:\PROGRAM FILES (X86)\WINDOWS KITS\8.0\LIB\WIN8\UM\X86\COMDLG32.LIB
C:\PROGRAM FILES (X86)\WINDOWS KITS\8.0\LIB\WIN8\UM\X86\ADVAPI32.LIB
C:\PROGRAM FILES (X86)\WINDOWS KITS\8.0\LIB\WIN8\UM\X86\SHELL32.LIB
C:\PROGRAM FILES (X86)\WINDOWS KITS\8.0\LIB\WIN8\UM\X86\OLE32.LIB
C:\PROGRAM FILES (X86)\WINDOWS KITS\8.0\LIB\WIN8\UM\X86\OLEAUT32.LIB
C:\PROGRAM FILES (X86)\WINDOWS KITS\8.0\LIB\WIN8\UM\X86\UUID.LIB
C:\PROGRAM FILES (X86)\WINDOWS KITS\8.0\LIB\WIN8\UM\X86\ODBC32.LIB
C:\PROGRAM FILES (X86)\WINDOWS KITS\8.0\LIB\WIN8\UM\X86\ODBCCP32.LIB
E:\UNIVERSITY\YEAR 2\CMP-5010B GRAPHICS 1\COURSEWORK\VERSION 2.5\DEBUG\ACTIVITY.OBJ
E:\UNIVERSITY\YEAR 2\CMP-5010B GRAPHICS 1\COURSEWORK\VERSION 2.5\DEBUG\BOUNDINGBOX.OBJ
E:\UNIVERSITY\YEAR 2\CMP-5010B GRAPHICS 1\COURSEWORK\VERSION 2.5\DEBUG\BOUNDINGCIRCLE.OBJ
E:\UNIVERSITY\YEAR 2\CMP-5010B GRAPHICS 1\COURSEWORK\VERSION 2.5\DEBUG\BUTTON.OBJ
E:\UNIVERSITY\YEAR 2\CMP-5010B GRAPHICS 1\COURSEWORK\VERSION 2.5\DEBUG\CAMERA.OBJ
E:\UNIVERSITY\YEAR 2\CMP-5010B GRAPHICS 1\COURSEWORK\VERSION 2.5\DEBUG\COLLIDABLEOBJECTS.OBJ
E:\UNIVERSITY\YEAR 2\CMP-5010B GRAPHICS 1\COURSEWORK\VERSION 2.5\DEBUG\CONSOLE.OBJ
E:\UNIVERSITY\YEAR 2\CMP-5010B GRAPHICS 1\COURSEWORK\VERSION 2.5\DEBUG\CONTROLS.OBJ
E:\UNIVERSITY\YEAR 2\CMP-5010B GRAPHICS 1\COURSEWORK\VERSION 2.5\DEBUG\DEATHOBJECTS.OBJ
E:\UNIVERSITY\YEAR 2\CMP-5010B GRAPHICS 1\COURSEWORK\VERSION 2.5\DEBUG\DEATHSCREEN.OBJ
E:\UNIVERSITY\YEAR 2\CMP-5010B GRAPHICS 1\COURSEWORK\VERSION 2.5\DEBUG\ENEMIES.OBJ
E:\UNIVERSITY\YEAR 2\CMP-5010B GRAPHICS 1\COURSEWORK\VERSION 2.5\DEBUG\EXIT.OBJ
E:\UNIVERSITY\YEAR 2\CMP-5010B GRAPHICS 1\COURSEWORK\VERSION 2.5\DEBUG\FOLLOWER.OBJ
E:\UNIVERSITY\YEAR 2\CMP-5010B GRAPHICS 1\COURSEWORK\VERSION 2.5\DEBUG\GAMEOBJECT.OBJ
E:\UNIVERSITY\YEAR 2\CMP-5010B GRAPHICS 1\COURSEWORK\VERSION 2.5\DEBUG\GEM.OBJ
E:\UNIVERSITY\YEAR 2\CMP-5010B GRAPHICS 1\COURSEWORK\VERSION 2.5\DEBUG\HUD.OBJ
E:\UNIVERSITY\YEAR 2\CMP-5010B GRAPHICS 1\COURSEWORK\VERSION 2.5\DEBUG\INPUTS.OBJ
E:\UNIVERSITY\YEAR 2\CMP-5010B GRAPHICS 1\COURSEWORK\VERSION 2.5\DEBUG\LEVELONE.OBJ
E:\UNIVERSITY\YEAR 2\CMP-5010B GRAPHICS 1\COURSEWORK\VERSION 2.5\DEBUG\LEVELSELECT.OBJ
E:\UNIVERSITY\YEAR 2\CMP-5010B GRAPHICS 1\COURSEWORK\VERSION 2.5\DEBUG\LEVELTWO.OBJ
E:\UNIVERSITY\YEAR 2\CMP-5010B GRAPHICS 1\COURSEWORK\VERSION 2.5\DEBUG\LOADPNG.OBJ
E:\UNIVERSITY\YEAR 2\CMP-5010B GRAPHICS 1\COURSEWORK\VERSION 2.5\DEBUG\MAINMENU.OBJ
E:\UNIVERSITY\YEAR 2\CMP-5010B GRAPHICS 1\COURSEWORK\VERSION 2.5\DEBUG\MOVINGPLATFORMS.OBJ
E:\UNIVERSITY\YEAR 2\CMP-5010B GRAPHICS 1\COURSEWORK\VERSION 2.5\DEBUG\OPENGLAPPLICATION.OBJ
E:\UNIVERSITY\YEAR 2\CMP-5010B GRAPHICS 1\COURSEWORK\VERSION 2.5\DEBUG\OUTOFTIME.OBJ
E:\UNIVERSITY\YEAR 2\CMP-5010B GRAPHICS 1\COURSEWORK\VERSION 2.5\DEBUG\PLATFORMS.OBJ
E:\UNIVERSITY\YEAR 2\CMP-5010B GRAPHICS 1\COURSEWORK\VERSION 2.5\DEBUG\PLAYER.OBJ
E:\UNIVERSITY\YEAR 2\CMP-5010B GRAPHICS 1\COURSEWORK\VERSION 2.5\DEBUG\SAW.OBJ
E:\UNIVERSITY\YEAR 2\CMP-5010B GRAPHICS 1\COURSEWORK\VERSION 2.5\DEBUG\SCORESCREEN.OBJ
E:\UNIVERSITY\YEAR 2\CMP-5010B GRAPHICS 1\COURSEWORK\VERSION 2.5\DEBUG\STATICWORLD.OBJ
E:\UNIVERSITY\YEAR 2\CMP-5010B GRAPHICS 1\COURSEWORK\VERSION 2.5\DEBUG\TORCH.OBJ
E:\UNIVERSITY\YEAR 2\CMP-5010B GRAPHICS 1\COURSEWORK\VERSION 2.5\DEBUG\TRAPS.OBJ
E:\UNIVERSITY\YEAR 2\CMP-5010B GRAPHICS 1\COURSEWORK\VERSION 2.5\DEBUG\TRIAL_PLATFORMER.OBJ
E:\UNIVERSITY\YEAR 2\CMP-5010B GRAPHICS 1\COURSEWORK\VERSION 2.5\DEBUG\VEC2.OBJ
C:\WINDOWS\GLOBALIZATION\SORTING\SORTDEFAULT.NLS
C:\PROGRAM FILES (X86)\MICROSOFT VISUAL STUDIO 11.0\VC\BIN\1033\LINKUI.DLL
E:\UNIVERSITY\YEAR 2\CMP-5010B GRAPHICS 1\COURSEWORK\VERSION 2.5\NVIMAGE.LIB
C:\PROGRAM FILES (X86)\MICROSOFT VISUAL STUDIO 11.0\VC\LIB\MSVCPRTD.LIB
C:\PROGRAM FILES (X86)\MICROSOFT VISUAL STUDIO 11.0\VC\LIB\MSVCRTD.LIB
C:\PROGRAM FILES (X86)\MICROSOFT VISUAL STUDIO 11.0\VC\LIB\OLDNAMES.LIB
C:\PROGRAM FILES (X86)\WINDOWS KITS\8.0\BIN\X86\RC.EXE
C:\PROGRAM FILES (X86)\MICROSOFT VISUAL STUDIO 11.0\VC\BIN\CVTRES.EXE
C:\WINDOWS\SYSTEM32\TZRES.DLL
C:\WINDOWS\SYSTEM32\RSAENH.DLL
