^F:\UNIVERSITY\YEAR 2\CMP-5010B GRAPHICS 1\VISUAL STUDIO 2013\WORKSPACE WITH CONSOLE\VERSION 2.5\ACTIVITY.CPP
F:\UNIVERSITY\YEAR 2\CMP-5010B GRAPHICS 1\VISUAL STUDIO 2013\WORKSPACE WITH CONSOLE\VERSION 2.5\RELEASE\VC120.PDB
^F:\UNIVERSITY\YEAR 2\CMP-5010B GRAPHICS 1\VISUAL STUDIO 2013\WORKSPACE WITH CONSOLE\VERSION 2.5\BOUNDINGBOX.CPP
F:\UNIVERSITY\YEAR 2\CMP-5010B GRAPHICS 1\VISUAL STUDIO 2013\WORKSPACE WITH CONSOLE\VERSION 2.5\RELEASE\VC120.PDB
^F:\UNIVERSITY\YEAR 2\CMP-5010B GRAPHICS 1\VISUAL STUDIO 2013\WORKSPACE WITH CONSOLE\VERSION 2.5\BOUNDINGCIRCLE.CPP
F:\UNIVERSITY\YEAR 2\CMP-5010B GRAPHICS 1\VISUAL STUDIO 2013\WORKSPACE WITH CONSOLE\VERSION 2.5\RELEASE\VC120.PDB
^F:\UNIVERSITY\YEAR 2\CMP-5010B GRAPHICS 1\VISUAL STUDIO 2013\WORKSPACE WITH CONSOLE\VERSION 2.5\BUTTON.CPP
F:\UNIVERSITY\YEAR 2\CMP-5010B GRAPHICS 1\VISUAL STUDIO 2013\WORKSPACE WITH CONSOLE\VERSION 2.5\RELEASE\VC120.PDB
^F:\UNIVERSITY\YEAR 2\CMP-5010B GRAPHICS 1\VISUAL STUDIO 2013\WORKSPACE WITH CONSOLE\VERSION 2.5\CAMERA.CPP
F:\UNIVERSITY\YEAR 2\CMP-5010B GRAPHICS 1\VISUAL STUDIO 2013\WORKSPACE WITH CONSOLE\VERSION 2.5\RELEASE\VC120.PDB
^F:\UNIVERSITY\YEAR 2\CMP-5010B GRAPHICS 1\VISUAL STUDIO 2013\WORKSPACE WITH CONSOLE\VERSION 2.5\COLLIDABLEOBJECTS.CPP
F:\UNIVERSITY\YEAR 2\CMP-5010B GRAPHICS 1\VISUAL STUDIO 2013\WORKSPACE WITH CONSOLE\VERSION 2.5\RELEASE\VC120.PDB
^F:\UNIVERSITY\YEAR 2\CMP-5010B GRAPHICS 1\VISUAL STUDIO 2013\WORKSPACE WITH CONSOLE\VERSION 2.5\CONSOLE.CPP
F:\UNIVERSITY\YEAR 2\CMP-5010B GRAPHICS 1\VISUAL STUDIO 2013\WORKSPACE WITH CONSOLE\VERSION 2.5\RELEASE\VC120.PDB
^F:\UNIVERSITY\YEAR 2\CMP-5010B GRAPHICS 1\VISUAL STUDIO 2013\WORKSPACE WITH CONSOLE\VERSION 2.5\CONTROLS.CPP
F:\UNIVERSITY\YEAR 2\CMP-5010B GRAPHICS 1\VISUAL STUDIO 2013\WORKSPACE WITH CONSOLE\VERSION 2.5\RELEASE\VC120.PDB
^F:\UNIVERSITY\YEAR 2\CMP-5010B GRAPHICS 1\VISUAL STUDIO 2013\WORKSPACE WITH CONSOLE\VERSION 2.5\DEATHOBJECTS.CPP
F:\UNIVERSITY\YEAR 2\CMP-5010B GRAPHICS 1\VISUAL STUDIO 2013\WORKSPACE WITH CONSOLE\VERSION 2.5\RELEASE\VC120.PDB
^F:\UNIVERSITY\YEAR 2\CMP-5010B GRAPHICS 1\VISUAL STUDIO 2013\WORKSPACE WITH CONSOLE\VERSION 2.5\DEATHSCREEN.CPP
F:\UNIVERSITY\YEAR 2\CMP-5010B GRAPHICS 1\VISUAL STUDIO 2013\WORKSPACE WITH CONSOLE\VERSION 2.5\RELEASE\VC120.PDB
^F:\UNIVERSITY\YEAR 2\CMP-5010B GRAPHICS 1\VISUAL STUDIO 2013\WORKSPACE WITH CONSOLE\VERSION 2.5\ENEMIES.CPP
F:\UNIVERSITY\YEAR 2\CMP-5010B GRAPHICS 1\VISUAL STUDIO 2013\WORKSPACE WITH CONSOLE\VERSION 2.5\RELEASE\VC120.PDB
^F:\UNIVERSITY\YEAR 2\CMP-5010B GRAPHICS 1\VISUAL STUDIO 2013\WORKSPACE WITH CONSOLE\VERSION 2.5\EXIT.CPP
F:\UNIVERSITY\YEAR 2\CMP-5010B GRAPHICS 1\VISUAL STUDIO 2013\WORKSPACE WITH CONSOLE\VERSION 2.5\RELEASE\VC120.PDB
^F:\UNIVERSITY\YEAR 2\CMP-5010B GRAPHICS 1\VISUAL STUDIO 2013\WORKSPACE WITH CONSOLE\VERSION 2.5\FOLLOWER.CPP
F:\UNIVERSITY\YEAR 2\CMP-5010B GRAPHICS 1\VISUAL STUDIO 2013\WORKSPACE WITH CONSOLE\VERSION 2.5\RELEASE\VC120.PDB
^F:\UNIVERSITY\YEAR 2\CMP-5010B GRAPHICS 1\VISUAL STUDIO 2013\WORKSPACE WITH CONSOLE\VERSION 2.5\GAMEOBJECT.CPP
F:\UNIVERSITY\YEAR 2\CMP-5010B GRAPHICS 1\VISUAL STUDIO 2013\WORKSPACE WITH CONSOLE\VERSION 2.5\RELEASE\VC120.PDB
^F:\UNIVERSITY\YEAR 2\CMP-5010B GRAPHICS 1\VISUAL STUDIO 2013\WORKSPACE WITH CONSOLE\VERSION 2.5\GEM.CPP
F:\UNIVERSITY\YEAR 2\CMP-5010B GRAPHICS 1\VISUAL STUDIO 2013\WORKSPACE WITH CONSOLE\VERSION 2.5\RELEASE\VC120.PDB
^F:\UNIVERSITY\YEAR 2\CMP-5010B GRAPHICS 1\VISUAL STUDIO 2013\WORKSPACE WITH CONSOLE\VERSION 2.5\HUD.CPP
F:\UNIVERSITY\YEAR 2\CMP-5010B GRAPHICS 1\VISUAL STUDIO 2013\WORKSPACE WITH CONSOLE\VERSION 2.5\RELEASE\VC120.PDB
^F:\UNIVERSITY\YEAR 2\CMP-5010B GRAPHICS 1\VISUAL STUDIO 2013\WORKSPACE WITH CONSOLE\VERSION 2.5\INPUTS.CPP
F:\UNIVERSITY\YEAR 2\CMP-5010B GRAPHICS 1\VISUAL STUDIO 2013\WORKSPACE WITH CONSOLE\VERSION 2.5\RELEASE\VC120.PDB
^F:\UNIVERSITY\YEAR 2\CMP-5010B GRAPHICS 1\VISUAL STUDIO 2013\WORKSPACE WITH CONSOLE\VERSION 2.5\LEVELONE.CPP
F:\UNIVERSITY\YEAR 2\CMP-5010B GRAPHICS 1\VISUAL STUDIO 2013\WORKSPACE WITH CONSOLE\VERSION 2.5\RELEASE\VC120.PDB
^F:\UNIVERSITY\YEAR 2\CMP-5010B GRAPHICS 1\VISUAL STUDIO 2013\WORKSPACE WITH CONSOLE\VERSION 2.5\LEVELSELECT.CPP
F:\UNIVERSITY\YEAR 2\CMP-5010B GRAPHICS 1\VISUAL STUDIO 2013\WORKSPACE WITH CONSOLE\VERSION 2.5\RELEASE\VC120.PDB
^F:\UNIVERSITY\YEAR 2\CMP-5010B GRAPHICS 1\VISUAL STUDIO 2013\WORKSPACE WITH CONSOLE\VERSION 2.5\LEVELTWO.CPP
F:\UNIVERSITY\YEAR 2\CMP-5010B GRAPHICS 1\VISUAL STUDIO 2013\WORKSPACE WITH CONSOLE\VERSION 2.5\RELEASE\VC120.PDB
^F:\UNIVERSITY\YEAR 2\CMP-5010B GRAPHICS 1\VISUAL STUDIO 2013\WORKSPACE WITH CONSOLE\VERSION 2.5\LOADPNG.CPP
F:\UNIVERSITY\YEAR 2\CMP-5010B GRAPHICS 1\VISUAL STUDIO 2013\WORKSPACE WITH CONSOLE\VERSION 2.5\RELEASE\VC120.PDB
^F:\UNIVERSITY\YEAR 2\CMP-5010B GRAPHICS 1\VISUAL STUDIO 2013\WORKSPACE WITH CONSOLE\VERSION 2.5\MAINMENU.CPP
F:\UNIVERSITY\YEAR 2\CMP-5010B GRAPHICS 1\VISUAL STUDIO 2013\WORKSPACE WITH CONSOLE\VERSION 2.5\RELEASE\VC120.PDB
^F:\UNIVERSITY\YEAR 2\CMP-5010B GRAPHICS 1\VISUAL STUDIO 2013\WORKSPACE WITH CONSOLE\VERSION 2.5\MOVINGPLATFORMS.CPP
F:\UNIVERSITY\YEAR 2\CMP-5010B GRAPHICS 1\VISUAL STUDIO 2013\WORKSPACE WITH CONSOLE\VERSION 2.5\RELEASE\VC120.PDB
^F:\UNIVERSITY\YEAR 2\CMP-5010B GRAPHICS 1\VISUAL STUDIO 2013\WORKSPACE WITH CONSOLE\VERSION 2.5\OPENGLAPPLICATION.CPP
F:\UNIVERSITY\YEAR 2\CMP-5010B GRAPHICS 1\VISUAL STUDIO 2013\WORKSPACE WITH CONSOLE\VERSION 2.5\RELEASE\VC120.PDB
^F:\UNIVERSITY\YEAR 2\CMP-5010B GRAPHICS 1\VISUAL STUDIO 2013\WORKSPACE WITH CONSOLE\VERSION 2.5\OUTOFTIME.CPP
F:\UNIVERSITY\YEAR 2\CMP-5010B GRAPHICS 1\VISUAL STUDIO 2013\WORKSPACE WITH CONSOLE\VERSION 2.5\RELEASE\VC120.PDB
^F:\UNIVERSITY\YEAR 2\CMP-5010B GRAPHICS 1\VISUAL STUDIO 2013\WORKSPACE WITH CONSOLE\VERSION 2.5\PLATFORMS.CPP
F:\UNIVERSITY\YEAR 2\CMP-5010B GRAPHICS 1\VISUAL STUDIO 2013\WORKSPACE WITH CONSOLE\VERSION 2.5\RELEASE\VC120.PDB
^F:\UNIVERSITY\YEAR 2\CMP-5010B GRAPHICS 1\VISUAL STUDIO 2013\WORKSPACE WITH CONSOLE\VERSION 2.5\PLAYER.CPP
F:\UNIVERSITY\YEAR 2\CMP-5010B GRAPHICS 1\VISUAL STUDIO 2013\WORKSPACE WITH CONSOLE\VERSION 2.5\RELEASE\VC120.PDB
^F:\UNIVERSITY\YEAR 2\CMP-5010B GRAPHICS 1\VISUAL STUDIO 2013\WORKSPACE WITH CONSOLE\VERSION 2.5\SAW.CPP
F:\UNIVERSITY\YEAR 2\CMP-5010B GRAPHICS 1\VISUAL STUDIO 2013\WORKSPACE WITH CONSOLE\VERSION 2.5\RELEASE\VC120.PDB
^F:\UNIVERSITY\YEAR 2\CMP-5010B GRAPHICS 1\VISUAL STUDIO 2013\WORKSPACE WITH CONSOLE\VERSION 2.5\SCORESCREEN.CPP
F:\UNIVERSITY\YEAR 2\CMP-5010B GRAPHICS 1\VISUAL STUDIO 2013\WORKSPACE WITH CONSOLE\VERSION 2.5\RELEASE\VC120.PDB
^F:\UNIVERSITY\YEAR 2\CMP-5010B GRAPHICS 1\VISUAL STUDIO 2013\WORKSPACE WITH CONSOLE\VERSION 2.5\STATICWORLD.CPP
F:\UNIVERSITY\YEAR 2\CMP-5010B GRAPHICS 1\VISUAL STUDIO 2013\WORKSPACE WITH CONSOLE\VERSION 2.5\RELEASE\VC120.PDB
^F:\UNIVERSITY\YEAR 2\CMP-5010B GRAPHICS 1\VISUAL STUDIO 2013\WORKSPACE WITH CONSOLE\VERSION 2.5\TORCH.CPP
F:\UNIVERSITY\YEAR 2\CMP-5010B GRAPHICS 1\VISUAL STUDIO 2013\WORKSPACE WITH CONSOLE\VERSION 2.5\RELEASE\VC120.PDB
^F:\UNIVERSITY\YEAR 2\CMP-5010B GRAPHICS 1\VISUAL STUDIO 2013\WORKSPACE WITH CONSOLE\VERSION 2.5\TRAPS.CPP
F:\UNIVERSITY\YEAR 2\CMP-5010B GRAPHICS 1\VISUAL STUDIO 2013\WORKSPACE WITH CONSOLE\VERSION 2.5\RELEASE\VC120.PDB
^F:\UNIVERSITY\YEAR 2\CMP-5010B GRAPHICS 1\VISUAL STUDIO 2013\WORKSPACE WITH CONSOLE\VERSION 2.5\TRIAL_PLATFORMER.CPP
F:\UNIVERSITY\YEAR 2\CMP-5010B GRAPHICS 1\VISUAL STUDIO 2013\WORKSPACE WITH CONSOLE\VERSION 2.5\RELEASE\VC120.PDB
^F:\UNIVERSITY\YEAR 2\CMP-5010B GRAPHICS 1\VISUAL STUDIO 2013\WORKSPACE WITH CONSOLE\VERSION 2.5\VEC2.CPP
F:\UNIVERSITY\YEAR 2\CMP-5010B GRAPHICS 1\VISUAL STUDIO 2013\WORKSPACE WITH CONSOLE\VERSION 2.5\RELEASE\VC120.PDB
^E:\UNIVERSITY\YEAR 2\CMP-5010B GRAPHICS 1\COURSEWORK\VERSION 2.5\ACTIVITY.CPP|E:\UNIVERSITY\YEAR 2\CMP-5010B GRAPHICS 1\COURSEWORK\VERSION 2.5\BOUNDINGBOX.CPP|E:\UNIVERSITY\YEAR 2\CMP-5010B GRAPHICS 1\COURSEWORK\VERSION 2.5\BOUNDINGCIRCLE.CPP|E:\UNIVERSITY\YEAR 2\CMP-5010B GRAPHICS 1\COURSEWORK\VERSION 2.5\BUTTON.CPP|E:\UNIVERSITY\YEAR 2\CMP-5010B GRAPHICS 1\COURSEWORK\VERSION 2.5\CAMERA.CPP|E:\UNIVERSITY\YEAR 2\CMP-5010B GRAPHICS 1\COURSEWORK\VERSION 2.5\COLLIDABLEOBJECTS.CPP|E:\UNIVERSITY\YEAR 2\CMP-5010B GRAPHICS 1\COURSEWORK\VERSION 2.5\CONSOLE.CPP|E:\UNIVERSITY\YEAR 2\CMP-5010B GRAPHICS 1\COURSEWORK\VERSION 2.5\CONTROLS.CPP|E:\UNIVERSITY\YEAR 2\CMP-5010B GRAPHICS 1\COURSEWORK\VERSION 2.5\DEATHOBJECTS.CPP|E:\UNIVERSITY\YEAR 2\CMP-5010B GRAPHICS 1\COURSEWORK\VERSION 2.5\DEATHSCREEN.CPP|E:\UNIVERSITY\YEAR 2\CMP-5010B GRAPHICS 1\COURSEWORK\VERSION 2.5\ENEMIES.CPP|E:\UNIVERSITY\YEAR 2\CMP-5010B GRAPHICS 1\COURSEWORK\VERSION 2.5\EXIT.CPP|E:\UNIVERSITY\YEAR 2\CMP-5010B GRAPHICS 1\COURSEWORK\VERSION 2.5\FOLLOWER.CPP|E:\UNIVERSITY\YEAR 2\CMP-5010B GRAPHICS 1\COURSEWORK\VERSION 2.5\GAMEOBJECT.CPP|E:\UNIVERSITY\YEAR 2\CMP-5010B GRAPHICS 1\COURSEWORK\VERSION 2.5\GEM.CPP|E:\UNIVERSITY\YEAR 2\CMP-5010B GRAPHICS 1\COURSEWORK\VERSION 2.5\HUD.CPP|E:\UNIVERSITY\YEAR 2\CMP-5010B GRAPHICS 1\COURSEWORK\VERSION 2.5\INPUTS.CPP|E:\UNIVERSITY\YEAR 2\CMP-5010B GRAPHICS 1\COURSEWORK\VERSION 2.5\LEVELONE.CPP|E:\UNIVERSITY\YEAR 2\CMP-5010B GRAPHICS 1\COURSEWORK\VERSION 2.5\LEVELSELECT.CPP|E:\UNIVERSITY\YEAR 2\CMP-5010B GRAPHICS 1\COURSEWORK\VERSION 2.5\LEVELTWO.CPP|E:\UNIVERSITY\YEAR 2\CMP-5010B GRAPHICS 1\COURSEWORK\VERSION 2.5\LOADPNG.CPP|E:\UNIVERSITY\YEAR 2\CMP-5010B GRAPHICS 1\COURSEWORK\VERSION 2.5\MAINMENU.CPP|E:\UNIVERSITY\YEAR 2\CMP-5010B GRAPHICS 1\COURSEWORK\VERSION 2.5\MOVINGPLATFORMS.CPP|E:\UNIVERSITY\YEAR 2\CMP-5010B GRAPHICS 1\COURSEWORK\VERSION 2.5\OPENGLAPPLICATION.CPP|E:\UNIVERSITY\YEAR 2\CMP-5010B GRAPHICS 1\COURSEWORK\VERSION 2.5\OUTOFTIME.CPP|E:\UNIVERSITY\YEAR 2\CMP-5010B GRAPHICS 1\COURSEWORK\VERSION 2.5\PLATFORMS.CPP|E:\UNIVERSITY\YEAR 2\CMP-5010B GRAPHICS 1\COURSEWORK\VERSION 2.5\PLAYER.CPP|E:\UNIVERSITY\YEAR 2\CMP-5010B GRAPHICS 1\COURSEWORK\VERSION 2.5\SAW.CPP|E:\UNIVERSITY\YEAR 2\CMP-5010B GRAPHICS 1\COURSEWORK\VERSION 2.5\SCORESCREEN.CPP|E:\UNIVERSITY\YEAR 2\CMP-5010B GRAPHICS 1\COURSEWORK\VERSION 2.5\STATICWORLD.CPP|E:\UNIVERSITY\YEAR 2\CMP-5010B GRAPHICS 1\COURSEWORK\VERSION 2.5\TORCH.CPP|E:\UNIVERSITY\YEAR 2\CMP-5010B GRAPHICS 1\COURSEWORK\VERSION 2.5\TRAPS.CPP|E:\UNIVERSITY\YEAR 2\CMP-5010B GRAPHICS 1\COURSEWORK\VERSION 2.5\TRIAL_PLATFORMER.CPP|E:\UNIVERSITY\YEAR 2\CMP-5010B GRAPHICS 1\COURSEWORK\VERSION 2.5\VEC2.CPP
E:\UNIVERSITY\YEAR 2\CMP-5010B GRAPHICS 1\COURSEWORK\VERSION 2.5\RELEASE\VC140.PDB
E:\UNIVERSITY\YEAR 2\CMP-5010B GRAPHICS 1\COURSEWORK\VERSION 2.5\RELEASE\LEVELTWO.OBJ
E:\UNIVERSITY\YEAR 2\CMP-5010B GRAPHICS 1\COURSEWORK\VERSION 2.5\RELEASE\LEVELSELECT.OBJ
E:\UNIVERSITY\YEAR 2\CMP-5010B GRAPHICS 1\COURSEWORK\VERSION 2.5\RELEASE\LEVELONE.OBJ
E:\UNIVERSITY\YEAR 2\CMP-5010B GRAPHICS 1\COURSEWORK\VERSION 2.5\RELEASE\INPUTS.OBJ
E:\UNIVERSITY\YEAR 2\CMP-5010B GRAPHICS 1\COURSEWORK\VERSION 2.5\RELEASE\HUD.OBJ
E:\UNIVERSITY\YEAR 2\CMP-5010B GRAPHICS 1\COURSEWORK\VERSION 2.5\RELEASE\GEM.OBJ
E:\UNIVERSITY\YEAR 2\CMP-5010B GRAPHICS 1\COURSEWORK\VERSION 2.5\RELEASE\GAMEOBJECT.OBJ
E:\UNIVERSITY\YEAR 2\CMP-5010B GRAPHICS 1\COURSEWORK\VERSION 2.5\RELEASE\FOLLOWER.OBJ
E:\UNIVERSITY\YEAR 2\CMP-5010B GRAPHICS 1\COURSEWORK\VERSION 2.5\RELEASE\EXIT.OBJ
E:\UNIVERSITY\YEAR 2\CMP-5010B GRAPHICS 1\COURSEWORK\VERSION 2.5\RELEASE\ENEMIES.OBJ
E:\UNIVERSITY\YEAR 2\CMP-5010B GRAPHICS 1\COURSEWORK\VERSION 2.5\RELEASE\DEATHSCREEN.OBJ
E:\UNIVERSITY\YEAR 2\CMP-5010B GRAPHICS 1\COURSEWORK\VERSION 2.5\RELEASE\DEATHOBJECTS.OBJ
E:\UNIVERSITY\YEAR 2\CMP-5010B GRAPHICS 1\COURSEWORK\VERSION 2.5\RELEASE\CONTROLS.OBJ
E:\UNIVERSITY\YEAR 2\CMP-5010B GRAPHICS 1\COURSEWORK\VERSION 2.5\RELEASE\CONSOLE.OBJ
E:\UNIVERSITY\YEAR 2\CMP-5010B GRAPHICS 1\COURSEWORK\VERSION 2.5\RELEASE\COLLIDABLEOBJECTS.OBJ
E:\UNIVERSITY\YEAR 2\CMP-5010B GRAPHICS 1\COURSEWORK\VERSION 2.5\RELEASE\CAMERA.OBJ
E:\UNIVERSITY\YEAR 2\CMP-5010B GRAPHICS 1\COURSEWORK\VERSION 2.5\RELEASE\BUTTON.OBJ
E:\UNIVERSITY\YEAR 2\CMP-5010B GRAPHICS 1\COURSEWORK\VERSION 2.5\RELEASE\BOUNDINGCIRCLE.OBJ
E:\UNIVERSITY\YEAR 2\CMP-5010B GRAPHICS 1\COURSEWORK\VERSION 2.5\RELEASE\BOUNDINGBOX.OBJ
E:\UNIVERSITY\YEAR 2\CMP-5010B GRAPHICS 1\COURSEWORK\VERSION 2.5\RELEASE\ACTIVITY.OBJ
E:\UNIVERSITY\YEAR 2\CMP-5010B GRAPHICS 1\COURSEWORK\VERSION 2.5\RELEASE\VEC2.OBJ
E:\UNIVERSITY\YEAR 2\CMP-5010B GRAPHICS 1\COURSEWORK\VERSION 2.5\RELEASE\TRIAL_PLATFORMER.OBJ
E:\UNIVERSITY\YEAR 2\CMP-5010B GRAPHICS 1\COURSEWORK\VERSION 2.5\RELEASE\TRAPS.OBJ
E:\UNIVERSITY\YEAR 2\CMP-5010B GRAPHICS 1\COURSEWORK\VERSION 2.5\RELEASE\TORCH.OBJ
E:\UNIVERSITY\YEAR 2\CMP-5010B GRAPHICS 1\COURSEWORK\VERSION 2.5\RELEASE\STATICWORLD.OBJ
E:\UNIVERSITY\YEAR 2\CMP-5010B GRAPHICS 1\COURSEWORK\VERSION 2.5\RELEASE\SCORESCREEN.OBJ
E:\UNIVERSITY\YEAR 2\CMP-5010B GRAPHICS 1\COURSEWORK\VERSION 2.5\RELEASE\SAW.OBJ
E:\UNIVERSITY\YEAR 2\CMP-5010B GRAPHICS 1\COURSEWORK\VERSION 2.5\RELEASE\PLAYER.OBJ
E:\UNIVERSITY\YEAR 2\CMP-5010B GRAPHICS 1\COURSEWORK\VERSION 2.5\RELEASE\PLATFORMS.OBJ
E:\UNIVERSITY\YEAR 2\CMP-5010B GRAPHICS 1\COURSEWORK\VERSION 2.5\RELEASE\OUTOFTIME.OBJ
E:\UNIVERSITY\YEAR 2\CMP-5010B GRAPHICS 1\COURSEWORK\VERSION 2.5\RELEASE\OPENGLAPPLICATION.OBJ
E:\UNIVERSITY\YEAR 2\CMP-5010B GRAPHICS 1\COURSEWORK\VERSION 2.5\RELEASE\MOVINGPLATFORMS.OBJ
E:\UNIVERSITY\YEAR 2\CMP-5010B GRAPHICS 1\COURSEWORK\VERSION 2.5\RELEASE\MAINMENU.OBJ
E:\UNIVERSITY\YEAR 2\CMP-5010B GRAPHICS 1\COURSEWORK\VERSION 2.5\RELEASE\LOADPNG.OBJ
^E:\UNIVERSITY\YEAR 2\CMP-5010B GRAPHICS 1\COURSEWORK\VERSION 2.5\ACTIVITY.CPP
E:\UNIVERSITY\YEAR 2\CMP-5010B GRAPHICS 1\COURSEWORK\VERSION 2.5\RELEASE\VC140.PDB
^E:\UNIVERSITY\YEAR 2\CMP-5010B GRAPHICS 1\COURSEWORK\VERSION 2.5\BOUNDINGBOX.CPP
E:\UNIVERSITY\YEAR 2\CMP-5010B GRAPHICS 1\COURSEWORK\VERSION 2.5\RELEASE\VC140.PDB
^E:\UNIVERSITY\YEAR 2\CMP-5010B GRAPHICS 1\COURSEWORK\VERSION 2.5\BOUNDINGCIRCLE.CPP
E:\UNIVERSITY\YEAR 2\CMP-5010B GRAPHICS 1\COURSEWORK\VERSION 2.5\RELEASE\VC140.PDB
^E:\UNIVERSITY\YEAR 2\CMP-5010B GRAPHICS 1\COURSEWORK\VERSION 2.5\BUTTON.CPP
E:\UNIVERSITY\YEAR 2\CMP-5010B GRAPHICS 1\COURSEWORK\VERSION 2.5\RELEASE\VC140.PDB
^E:\UNIVERSITY\YEAR 2\CMP-5010B GRAPHICS 1\COURSEWORK\VERSION 2.5\CAMERA.CPP
E:\UNIVERSITY\YEAR 2\CMP-5010B GRAPHICS 1\COURSEWORK\VERSION 2.5\RELEASE\VC140.PDB
^E:\UNIVERSITY\YEAR 2\CMP-5010B GRAPHICS 1\COURSEWORK\VERSION 2.5\COLLIDABLEOBJECTS.CPP
E:\UNIVERSITY\YEAR 2\CMP-5010B GRAPHICS 1\COURSEWORK\VERSION 2.5\RELEASE\VC140.PDB
^E:\UNIVERSITY\YEAR 2\CMP-5010B GRAPHICS 1\COURSEWORK\VERSION 2.5\CONSOLE.CPP
E:\UNIVERSITY\YEAR 2\CMP-5010B GRAPHICS 1\COURSEWORK\VERSION 2.5\RELEASE\VC140.PDB
^E:\UNIVERSITY\YEAR 2\CMP-5010B GRAPHICS 1\COURSEWORK\VERSION 2.5\CONTROLS.CPP
E:\UNIVERSITY\YEAR 2\CMP-5010B GRAPHICS 1\COURSEWORK\VERSION 2.5\RELEASE\VC140.PDB
^E:\UNIVERSITY\YEAR 2\CMP-5010B GRAPHICS 1\COURSEWORK\VERSION 2.5\DEATHOBJECTS.CPP
E:\UNIVERSITY\YEAR 2\CMP-5010B GRAPHICS 1\COURSEWORK\VERSION 2.5\RELEASE\VC140.PDB
^E:\UNIVERSITY\YEAR 2\CMP-5010B GRAPHICS 1\COURSEWORK\VERSION 2.5\DEATHSCREEN.CPP
E:\UNIVERSITY\YEAR 2\CMP-5010B GRAPHICS 1\COURSEWORK\VERSION 2.5\RELEASE\VC140.PDB
^E:\UNIVERSITY\YEAR 2\CMP-5010B GRAPHICS 1\COURSEWORK\VERSION 2.5\ENEMIES.CPP
E:\UNIVERSITY\YEAR 2\CMP-5010B GRAPHICS 1\COURSEWORK\VERSION 2.5\RELEASE\VC140.PDB
^E:\UNIVERSITY\YEAR 2\CMP-5010B GRAPHICS 1\COURSEWORK\VERSION 2.5\EXIT.CPP
E:\UNIVERSITY\YEAR 2\CMP-5010B GRAPHICS 1\COURSEWORK\VERSION 2.5\RELEASE\VC140.PDB
^E:\UNIVERSITY\YEAR 2\CMP-5010B GRAPHICS 1\COURSEWORK\VERSION 2.5\FOLLOWER.CPP
E:\UNIVERSITY\YEAR 2\CMP-5010B GRAPHICS 1\COURSEWORK\VERSION 2.5\RELEASE\VC140.PDB
^E:\UNIVERSITY\YEAR 2\CMP-5010B GRAPHICS 1\COURSEWORK\VERSION 2.5\GAMEOBJECT.CPP
E:\UNIVERSITY\YEAR 2\CMP-5010B GRAPHICS 1\COURSEWORK\VERSION 2.5\RELEASE\VC140.PDB
^E:\UNIVERSITY\YEAR 2\CMP-5010B GRAPHICS 1\COURSEWORK\VERSION 2.5\GEM.CPP
E:\UNIVERSITY\YEAR 2\CMP-5010B GRAPHICS 1\COURSEWORK\VERSION 2.5\RELEASE\VC140.PDB
^E:\UNIVERSITY\YEAR 2\CMP-5010B GRAPHICS 1\COURSEWORK\VERSION 2.5\HUD.CPP
E:\UNIVERSITY\YEAR 2\CMP-5010B GRAPHICS 1\COURSEWORK\VERSION 2.5\RELEASE\VC140.PDB
^E:\UNIVERSITY\YEAR 2\CMP-5010B GRAPHICS 1\COURSEWORK\VERSION 2.5\INPUTS.CPP
E:\UNIVERSITY\YEAR 2\CMP-5010B GRAPHICS 1\COURSEWORK\VERSION 2.5\RELEASE\VC140.PDB
^E:\UNIVERSITY\YEAR 2\CMP-5010B GRAPHICS 1\COURSEWORK\VERSION 2.5\LEVELONE.CPP
E:\UNIVERSITY\YEAR 2\CMP-5010B GRAPHICS 1\COURSEWORK\VERSION 2.5\RELEASE\VC140.PDB
^E:\UNIVERSITY\YEAR 2\CMP-5010B GRAPHICS 1\COURSEWORK\VERSION 2.5\LEVELSELECT.CPP
E:\UNIVERSITY\YEAR 2\CMP-5010B GRAPHICS 1\COURSEWORK\VERSION 2.5\RELEASE\VC140.PDB
^E:\UNIVERSITY\YEAR 2\CMP-5010B GRAPHICS 1\COURSEWORK\VERSION 2.5\LEVELTWO.CPP
E:\UNIVERSITY\YEAR 2\CMP-5010B GRAPHICS 1\COURSEWORK\VERSION 2.5\RELEASE\VC140.PDB
^E:\UNIVERSITY\YEAR 2\CMP-5010B GRAPHICS 1\COURSEWORK\VERSION 2.5\LOADPNG.CPP
E:\UNIVERSITY\YEAR 2\CMP-5010B GRAPHICS 1\COURSEWORK\VERSION 2.5\RELEASE\VC140.PDB
^E:\UNIVERSITY\YEAR 2\CMP-5010B GRAPHICS 1\COURSEWORK\VERSION 2.5\MAINMENU.CPP
E:\UNIVERSITY\YEAR 2\CMP-5010B GRAPHICS 1\COURSEWORK\VERSION 2.5\RELEASE\VC140.PDB
^E:\UNIVERSITY\YEAR 2\CMP-5010B GRAPHICS 1\COURSEWORK\VERSION 2.5\MOVINGPLATFORMS.CPP
E:\UNIVERSITY\YEAR 2\CMP-5010B GRAPHICS 1\COURSEWORK\VERSION 2.5\RELEASE\VC140.PDB
^E:\UNIVERSITY\YEAR 2\CMP-5010B GRAPHICS 1\COURSEWORK\VERSION 2.5\OPENGLAPPLICATION.CPP
E:\UNIVERSITY\YEAR 2\CMP-5010B GRAPHICS 1\COURSEWORK\VERSION 2.5\RELEASE\VC140.PDB
^E:\UNIVERSITY\YEAR 2\CMP-5010B GRAPHICS 1\COURSEWORK\VERSION 2.5\OUTOFTIME.CPP
E:\UNIVERSITY\YEAR 2\CMP-5010B GRAPHICS 1\COURSEWORK\VERSION 2.5\RELEASE\VC140.PDB
^E:\UNIVERSITY\YEAR 2\CMP-5010B GRAPHICS 1\COURSEWORK\VERSION 2.5\PLATFORMS.CPP
E:\UNIVERSITY\YEAR 2\CMP-5010B GRAPHICS 1\COURSEWORK\VERSION 2.5\RELEASE\VC140.PDB
^E:\UNIVERSITY\YEAR 2\CMP-5010B GRAPHICS 1\COURSEWORK\VERSION 2.5\PLAYER.CPP
E:\UNIVERSITY\YEAR 2\CMP-5010B GRAPHICS 1\COURSEWORK\VERSION 2.5\RELEASE\VC140.PDB
^E:\UNIVERSITY\YEAR 2\CMP-5010B GRAPHICS 1\COURSEWORK\VERSION 2.5\SAW.CPP
E:\UNIVERSITY\YEAR 2\CMP-5010B GRAPHICS 1\COURSEWORK\VERSION 2.5\RELEASE\VC140.PDB
^E:\UNIVERSITY\YEAR 2\CMP-5010B GRAPHICS 1\COURSEWORK\VERSION 2.5\SCORESCREEN.CPP
E:\UNIVERSITY\YEAR 2\CMP-5010B GRAPHICS 1\COURSEWORK\VERSION 2.5\RELEASE\VC140.PDB
^E:\UNIVERSITY\YEAR 2\CMP-5010B GRAPHICS 1\COURSEWORK\VERSION 2.5\STATICWORLD.CPP
E:\UNIVERSITY\YEAR 2\CMP-5010B GRAPHICS 1\COURSEWORK\VERSION 2.5\RELEASE\VC140.PDB
^E:\UNIVERSITY\YEAR 2\CMP-5010B GRAPHICS 1\COURSEWORK\VERSION 2.5\TORCH.CPP
E:\UNIVERSITY\YEAR 2\CMP-5010B GRAPHICS 1\COURSEWORK\VERSION 2.5\RELEASE\VC140.PDB
^E:\UNIVERSITY\YEAR 2\CMP-5010B GRAPHICS 1\COURSEWORK\VERSION 2.5\TRAPS.CPP
E:\UNIVERSITY\YEAR 2\CMP-5010B GRAPHICS 1\COURSEWORK\VERSION 2.5\RELEASE\VC140.PDB
^E:\UNIVERSITY\YEAR 2\CMP-5010B GRAPHICS 1\COURSEWORK\VERSION 2.5\TRIAL_PLATFORMER.CPP
E:\UNIVERSITY\YEAR 2\CMP-5010B GRAPHICS 1\COURSEWORK\VERSION 2.5\RELEASE\VC140.PDB
^E:\UNIVERSITY\YEAR 2\CMP-5010B GRAPHICS 1\COURSEWORK\VERSION 2.5\VEC2.CPP
E:\UNIVERSITY\YEAR 2\CMP-5010B GRAPHICS 1\COURSEWORK\VERSION 2.5\RELEASE\VC140.PDB
