^E:\UNIVERSITY\YEAR 2\CMP-5010B GRAPHICS 1\COURSEWORK\VERSION 2.5\RELEASE\ACTIVITY.OBJ|E:\UNIVERSITY\YEAR 2\CMP-5010B GRAPHICS 1\COURSEWORK\VERSION 2.5\RELEASE\BOUNDINGBOX.OBJ|E:\UNIVERSITY\YEAR 2\CMP-5010B GRAPHICS 1\COURSEWORK\VERSION 2.5\RELEASE\BOUNDINGCIRCLE.OBJ|E:\UNIVERSITY\YEAR 2\CMP-5010B GRAPHICS 1\COURSEWORK\VERSION 2.5\RELEASE\BUTTON.OBJ|E:\UNIVERSITY\YEAR 2\CMP-5010B GRAPHICS 1\COURSEWORK\VERSION 2.5\RELEASE\CAMERA.OBJ|E:\UNIVERSITY\YEAR 2\CMP-5010B GRAPHICS 1\COURSEWORK\VERSION 2.5\RELEASE\COLLIDABLEOBJECTS.OBJ|E:\UNIVERSITY\YEAR 2\CMP-5010B GRAPHICS 1\COURSEWORK\VERSION 2.5\RELEASE\CONSOLE.OBJ|E:\UNIVERSITY\YEAR 2\CMP-5010B GRAPHICS 1\COURSEWORK\VERSION 2.5\RELEASE\CONTROLS.OBJ|E:\UNIVERSITY\YEAR 2\CMP-5010B GRAPHICS 1\COURSEWORK\VERSION 2.5\RELEASE\DEATHOBJECTS.OBJ|E:\UNIVERSITY\YEAR 2\CMP-5010B GRAPHICS 1\COURSEWORK\VERSION 2.5\RELEASE\DEATHSCREEN.OBJ|E:\UNIVERSITY\YEAR 2\CMP-5010B GRAPHICS 1\COURSEWORK\VERSION 2.5\RELEASE\ENEMIES.OBJ|E:\UNIVERSITY\YEAR 2\CMP-5010B GRAPHICS 1\COURSEWORK\VERSION 2.5\RELEASE\EXIT.OBJ|E:\UNIVERSITY\YEAR 2\CMP-5010B GRAPHICS 1\COURSEWORK\VERSION 2.5\RELEASE\FOLLOWER.OBJ|E:\UNIVERSITY\YEAR 2\CMP-5010B GRAPHICS 1\COURSEWORK\VERSION 2.5\RELEASE\GAMEOBJECT.OBJ|E:\UNIVERSITY\YEAR 2\CMP-5010B GRAPHICS 1\COURSEWORK\VERSION 2.5\RELEASE\GEM.OBJ|E:\UNIVERSITY\YEAR 2\CMP-5010B GRAPHICS 1\COURSEWORK\VERSION 2.5\RELEASE\HUD.OBJ|E:\UNIVERSITY\YEAR 2\CMP-5010B GRAPHICS 1\COURSEWORK\VERSION 2.5\RELEASE\INPUTS.OBJ|E:\UNIVERSITY\YEAR 2\CMP-5010B GRAPHICS 1\COURSEWORK\VERSION 2.5\RELEASE\LEVELONE.OBJ|E:\UNIVERSITY\YEAR 2\CMP-5010B GRAPHICS 1\COURSEWORK\VERSION 2.5\RELEASE\LEVELSELECT.OBJ|E:\UNIVERSITY\YEAR 2\CMP-5010B GRAPHICS 1\COURSEWORK\VERSION 2.5\RELEASE\LEVELTWO.OBJ|E:\UNIVERSITY\YEAR 2\CMP-5010B GRAPHICS 1\COURSEWORK\VERSION 2.5\RELEASE\LOADPNG.OBJ|E:\UNIVERSITY\YEAR 2\CMP-5010B GRAPHICS 1\COURSEWORK\VERSION 2.5\RELEASE\MAINMENU.OBJ|E:\UNIVERSITY\YEAR 2\CMP-5010B GRAPHICS 1\COURSEWORK\VERSION 2.5\RELEASE\MOVINGPLATFORMS.OBJ|E:\UNIVERSITY\YEAR 2\CMP-5010B GRAPHICS 1\COURSEWORK\VERSION 2.5\RELEASE\OPENGLAPPLICATION.OBJ|E:\UNIVERSITY\YEAR 2\CMP-5010B GRAPHICS 1\COURSEWORK\VERSION 2.5\RELEASE\OUTOFTIME.OBJ|E:\UNIVERSITY\YEAR 2\CMP-5010B GRAPHICS 1\COURSEWORK\VERSION 2.5\RELEASE\PLATFORMS.OBJ|E:\UNIVERSITY\YEAR 2\CMP-5010B GRAPHICS 1\COURSEWORK\VERSION 2.5\RELEASE\PLAYER.OBJ|E:\UNIVERSITY\YEAR 2\CMP-5010B GRAPHICS 1\COURSEWORK\VERSION 2.5\RELEASE\SAW.OBJ|E:\UNIVERSITY\YEAR 2\CMP-5010B GRAPHICS 1\COURSEWORK\VERSION 2.5\RELEASE\SCORESCREEN.OBJ|E:\UNIVERSITY\YEAR 2\CMP-5010B GRAPHICS 1\COURSEWORK\VERSION 2.5\RELEASE\STATICWORLD.OBJ|E:\UNIVERSITY\YEAR 2\CMP-5010B GRAPHICS 1\COURSEWORK\VERSION 2.5\RELEASE\TORCH.OBJ|E:\UNIVERSITY\YEAR 2\CMP-5010B GRAPHICS 1\COURSEWORK\VERSION 2.5\RELEASE\TRAPS.OBJ|E:\UNIVERSITY\YEAR 2\CMP-5010B GRAPHICS 1\COURSEWORK\VERSION 2.5\RELEASE\TRIAL_PLATFORMER.OBJ|E:\UNIVERSITY\YEAR 2\CMP-5010B GRAPHICS 1\COURSEWORK\VERSION 2.5\RELEASE\VEC2.OBJ
C:\WINDOWS\GLOBALIZATION\SORTING\SORTDEFAULT.NLS
C:\PROGRAM FILES (X86)\WINDOWS KITS\8.1\LIB\WINV6.3\UM\X86\OPENGL32.LIB
C:\PROGRAM FILES (X86)\WINDOWS KITS\8.1\LIB\WINV6.3\UM\X86\GLU32.LIB
C:\PROGRAM FILES (X86)\WINDOWS KITS\8.1\LIB\WINV6.3\UM\X86\KERNEL32.LIB
C:\PROGRAM FILES (X86)\WINDOWS KITS\8.1\LIB\WINV6.3\UM\X86\USER32.LIB
C:\PROGRAM FILES (X86)\WINDOWS KITS\8.1\LIB\WINV6.3\UM\X86\GDI32.LIB
C:\PROGRAM FILES (X86)\WINDOWS KITS\8.1\LIB\WINV6.3\UM\X86\WINSPOOL.LIB
C:\PROGRAM FILES (X86)\WINDOWS KITS\8.1\LIB\WINV6.3\UM\X86\COMDLG32.LIB
C:\PROGRAM FILES (X86)\WINDOWS KITS\8.1\LIB\WINV6.3\UM\X86\ADVAPI32.LIB
C:\PROGRAM FILES (X86)\WINDOWS KITS\8.1\LIB\WINV6.3\UM\X86\SHELL32.LIB
C:\PROGRAM FILES (X86)\WINDOWS KITS\8.1\LIB\WINV6.3\UM\X86\OLE32.LIB
C:\PROGRAM FILES (X86)\WINDOWS KITS\8.1\LIB\WINV6.3\UM\X86\OLEAUT32.LIB
C:\PROGRAM FILES (X86)\WINDOWS KITS\8.1\LIB\WINV6.3\UM\X86\UUID.LIB
C:\PROGRAM FILES (X86)\WINDOWS KITS\8.1\LIB\WINV6.3\UM\X86\ODBC32.LIB
C:\PROGRAM FILES (X86)\WINDOWS KITS\8.1\LIB\WINV6.3\UM\X86\ODBCCP32.LIB
E:\UNIVERSITY\YEAR 2\CMP-5010B GRAPHICS 1\COURSEWORK\VERSION 2.5\RELEASE\ACTIVITY.OBJ
E:\UNIVERSITY\YEAR 2\CMP-5010B GRAPHICS 1\COURSEWORK\VERSION 2.5\RELEASE\BOUNDINGBOX.OBJ
E:\UNIVERSITY\YEAR 2\CMP-5010B GRAPHICS 1\COURSEWORK\VERSION 2.5\RELEASE\BOUNDINGCIRCLE.OBJ
E:\UNIVERSITY\YEAR 2\CMP-5010B GRAPHICS 1\COURSEWORK\VERSION 2.5\RELEASE\BUTTON.OBJ
E:\UNIVERSITY\YEAR 2\CMP-5010B GRAPHICS 1\COURSEWORK\VERSION 2.5\RELEASE\CAMERA.OBJ
E:\UNIVERSITY\YEAR 2\CMP-5010B GRAPHICS 1\COURSEWORK\VERSION 2.5\RELEASE\COLLIDABLEOBJECTS.OBJ
E:\UNIVERSITY\YEAR 2\CMP-5010B GRAPHICS 1\COURSEWORK\VERSION 2.5\RELEASE\CONSOLE.OBJ
E:\UNIVERSITY\YEAR 2\CMP-5010B GRAPHICS 1\COURSEWORK\VERSION 2.5\RELEASE\CONTROLS.OBJ
E:\UNIVERSITY\YEAR 2\CMP-5010B GRAPHICS 1\COURSEWORK\VERSION 2.5\RELEASE\DEATHOBJECTS.OBJ
E:\UNIVERSITY\YEAR 2\CMP-5010B GRAPHICS 1\COURSEWORK\VERSION 2.5\RELEASE\DEATHSCREEN.OBJ
E:\UNIVERSITY\YEAR 2\CMP-5010B GRAPHICS 1\COURSEWORK\VERSION 2.5\RELEASE\ENEMIES.OBJ
E:\UNIVERSITY\YEAR 2\CMP-5010B GRAPHICS 1\COURSEWORK\VERSION 2.5\RELEASE\EXIT.OBJ
E:\UNIVERSITY\YEAR 2\CMP-5010B GRAPHICS 1\COURSEWORK\VERSION 2.5\RELEASE\FOLLOWER.OBJ
E:\UNIVERSITY\YEAR 2\CMP-5010B GRAPHICS 1\COURSEWORK\VERSION 2.5\RELEASE\GAMEOBJECT.OBJ
E:\UNIVERSITY\YEAR 2\CMP-5010B GRAPHICS 1\COURSEWORK\VERSION 2.5\RELEASE\GEM.OBJ
E:\UNIVERSITY\YEAR 2\CMP-5010B GRAPHICS 1\COURSEWORK\VERSION 2.5\RELEASE\HUD.OBJ
E:\UNIVERSITY\YEAR 2\CMP-5010B GRAPHICS 1\COURSEWORK\VERSION 2.5\RELEASE\INPUTS.OBJ
E:\UNIVERSITY\YEAR 2\CMP-5010B GRAPHICS 1\COURSEWORK\VERSION 2.5\RELEASE\LEVELONE.OBJ
E:\UNIVERSITY\YEAR 2\CMP-5010B GRAPHICS 1\COURSEWORK\VERSION 2.5\RELEASE\LEVELSELECT.OBJ
E:\UNIVERSITY\YEAR 2\CMP-5010B GRAPHICS 1\COURSEWORK\VERSION 2.5\RELEASE\LEVELTWO.OBJ
E:\UNIVERSITY\YEAR 2\CMP-5010B GRAPHICS 1\COURSEWORK\VERSION 2.5\RELEASE\LOADPNG.OBJ
E:\UNIVERSITY\YEAR 2\CMP-5010B GRAPHICS 1\COURSEWORK\VERSION 2.5\RELEASE\MAINMENU.OBJ
E:\UNIVERSITY\YEAR 2\CMP-5010B GRAPHICS 1\COURSEWORK\VERSION 2.5\RELEASE\MOVINGPLATFORMS.OBJ
E:\UNIVERSITY\YEAR 2\CMP-5010B GRAPHICS 1\COURSEWORK\VERSION 2.5\RELEASE\OPENGLAPPLICATION.OBJ
E:\UNIVERSITY\YEAR 2\CMP-5010B GRAPHICS 1\COURSEWORK\VERSION 2.5\RELEASE\OUTOFTIME.OBJ
E:\UNIVERSITY\YEAR 2\CMP-5010B GRAPHICS 1\COURSEWORK\VERSION 2.5\RELEASE\PLATFORMS.OBJ
E:\UNIVERSITY\YEAR 2\CMP-5010B GRAPHICS 1\COURSEWORK\VERSION 2.5\RELEASE\PLAYER.OBJ
E:\UNIVERSITY\YEAR 2\CMP-5010B GRAPHICS 1\COURSEWORK\VERSION 2.5\RELEASE\SAW.OBJ
E:\UNIVERSITY\YEAR 2\CMP-5010B GRAPHICS 1\COURSEWORK\VERSION 2.5\RELEASE\SCORESCREEN.OBJ
E:\UNIVERSITY\YEAR 2\CMP-5010B GRAPHICS 1\COURSEWORK\VERSION 2.5\RELEASE\STATICWORLD.OBJ
E:\UNIVERSITY\YEAR 2\CMP-5010B GRAPHICS 1\COURSEWORK\VERSION 2.5\RELEASE\TORCH.OBJ
E:\UNIVERSITY\YEAR 2\CMP-5010B GRAPHICS 1\COURSEWORK\VERSION 2.5\RELEASE\TRAPS.OBJ
E:\UNIVERSITY\YEAR 2\CMP-5010B GRAPHICS 1\COURSEWORK\VERSION 2.5\RELEASE\TRIAL_PLATFORMER.OBJ
E:\UNIVERSITY\YEAR 2\CMP-5010B GRAPHICS 1\COURSEWORK\VERSION 2.5\RELEASE\VEC2.OBJ
C:\PROGRAM FILES (X86)\MICROSOFT VISUAL STUDIO 14.0\VC\BIN\C2.DLL
E:\UNIVERSITY\YEAR 2\CMP-5010B GRAPHICS 1\COURSEWORK\VERSION 2.5\NVIMAGE.LIB
C:\PROGRAM FILES (X86)\MICROSOFT VISUAL STUDIO 14.0\VC\LIB\MSVCPRT.LIB
C:\PROGRAM FILES (X86)\MICROSOFT VISUAL STUDIO 14.0\VC\LIB\MSVCRT.LIB
C:\PROGRAM FILES (X86)\MICROSOFT VISUAL STUDIO 14.0\VC\LIB\OLDNAMES.LIB
C:\PROGRAM FILES (X86)\MICROSOFT VISUAL STUDIO 14.0\VC\LIB\VCRUNTIME.LIB
C:\PROGRAM FILES (X86)\WINDOWS KITS\10\LIB\10.0.10240.0\UCRT\X86\UCRT.LIB
C:\PROGRAM FILES (X86)\MICROSOFT VISUAL STUDIO 14.0\VC\BIN\1033\LINKUI.DLL
C:\PROGRAM FILES (X86)\WINDOWS KITS\8.1\BIN\X86\RC.EXE
C:\PROGRAM FILES (X86)\MICROSOFT VISUAL STUDIO 14.0\VC\BIN\CVTRES.EXE
C:\PROGRAM FILES (X86)\MICROSOFT VISUAL STUDIO 14.0\VC\BIN\MSPDBSRV.EXE
C:\WINDOWS\SYSTEM32\TZRES.DLL
